<svg width="34" height="38" viewBox="0 0 34 38" fill="none" xmlns="http://www.w3.org/2000/svg">
<g filter="url(#filter0_d_1204_3497)">
<path d="M25.317 15.7221C25.0175 14.4364 24.3701 13.2578 23.4457 12.3154C22.8939 11.7204 22.2989 11.159 21.7567 10.5544C20.359 8.94715 19.3901 7.01274 18.9401 4.93083L18.8393 4.47983L18.729 4C17.4292 4.81618 16.3189 5.90065 15.4723 7.18084C14.6258 8.46102 14.0625 9.90734 13.8204 11.4229C12.8607 11.1014 12.1458 9.7243 12.2321 8.29442C12.2004 8.31643 12.1714 8.34223 12.1458 8.37121C10.9739 10.1747 9.96847 12.081 9.14206 14.0667C8.41936 15.8912 8.32863 17.9052 8.88437 19.7872C9.44012 21.6693 10.6103 23.3109 12.2081 24.4502C13.451 25.3478 14.9241 25.8721 16.4546 25.9616C16.5506 25.9616 16.6465 25.9904 16.7425 26H17.2799C17.8527 25.9483 18.4217 25.8602 18.9833 25.7361C22.3037 24.8244 24.3621 22.6556 25.221 19.34C25.3362 18.889 25.3602 18.4091 25.4321 17.9437C25.4321 17.8717 25.4609 17.8046 25.4753 17.7326V16.9505C25.437 16.5282 25.4034 16.1204 25.317 15.7221ZM18.0092 23.5145C17.657 23.6457 17.2812 23.7021 16.9059 23.6801C16.5306 23.6581 16.1641 23.5582 15.8295 23.3866C15.495 23.2151 15.2 22.9757 14.9631 22.6838C14.7262 22.3919 14.5527 22.0538 14.4537 21.6912C14.2962 21.1122 14.3577 20.4954 14.6265 19.959C15.1803 18.8773 15.8705 17.8711 16.6801 16.9648L17.0352 16.5618C17.9343 17.6114 18.7148 18.7572 19.3623 19.9782C19.5327 20.2946 19.6327 20.644 19.6558 21.0027C19.6788 21.3613 19.6242 21.7206 19.4958 22.0563C19.3674 22.3919 19.1681 22.6959 18.9116 22.9476C18.6551 23.1992 18.3473 23.3925 18.0092 23.5145Z" fill="url(#paint0_linear_1204_3497)"/>
</g>
<path d="M18.3784 23.9475C17.8903 24.1164 17.3696 24.189 16.8497 24.1607C16.3297 24.1323 15.8218 24.0037 15.3583 23.783C14.8948 23.5622 14.486 23.2542 14.1578 22.8785C13.8295 22.5028 13.5892 22.0678 13.4521 21.6011C13.2337 20.856 13.3189 20.0622 13.6914 19.3718C14.4588 17.9799 15.4151 16.6849 16.5368 15.5187L17.0288 15C18.2746 16.3508 19.3559 17.8253 20.2532 19.3966C20.4891 19.8038 20.6278 20.2535 20.6597 20.715C20.6916 21.1765 20.616 21.639 20.4381 22.0709C20.2602 22.5028 19.9841 22.8941 19.6286 23.2179C19.2732 23.5418 18.8467 23.7906 18.3784 23.9475Z" fill="#FFFB93"/>
<defs>
<filter id="filter0_d_1204_3497" x="0.524902" y="0" width="32.9502" height="38" filterUnits="userSpaceOnUse" color-interpolation-filters="sRGB">
<feFlood flood-opacity="0" result="BackgroundImageFix"/>
<feColorMatrix in="SourceAlpha" type="matrix" values="0 0 0 0 0 0 0 0 0 0 0 0 0 0 0 0 0 0 127 0" result="hardAlpha"/>
<feOffset dy="4"/>
<feGaussianBlur stdDeviation="4"/>
<feComposite in2="hardAlpha" operator="out"/>
<feColorMatrix type="matrix" values="0 0 0 0 1 0 0 0 0 0.870667 0 0 0 0 0.619608 0 0 0 0.6 0"/>
<feBlend mode="normal" in2="BackgroundImageFix" result="effect1_dropShadow_1204_3497"/>
<feBlend mode="normal" in="SourceGraphic" in2="effect1_dropShadow_1204_3497" result="shape"/>
</filter>
<linearGradient id="paint0_linear_1204_3497" x1="17.0001" y1="4" x2="17.0001" y2="26" gradientUnits="userSpaceOnUse">
<stop stop-color="#FF2D46"/>
<stop offset="1" stop-color="#FD9270"/>
</linearGradient>
</defs>
</svg>
