<svg width="17" height="16" viewBox="0 0 17 16" fill="none" xmlns="http://www.w3.org/2000/svg">
<path d="M15.3773 14.1488C15.3121 14.0641 15.2404 13.9846 15.163 13.911C14.5596 13.3449 13.4622 12.2605 12.8587 11.6604C13.2626 11.1433 13.6211 10.5921 13.9303 10.013C14.3735 9.1242 14.5795 8.13521 14.5282 7.14264C14.4586 5.75197 13.9417 4.42145 13.0549 3.35067C12.1682 2.2799 10.9595 1.52662 9.61018 1.20384L9.2887 1.13024L9.04619 1.08494C8.69563 1.02787 8.34103 0.999454 7.98589 1.00001H7.92384H7.68133C7.40714 1.01662 7.13411 1.04877 6.86353 1.09628H6.77894C6.5171 1.1391 6.25882 1.20152 6.00627 1.28308C5.81416 1.33437 5.62573 1.3987 5.44228 1.47558C4.96138 1.67796 4.50684 1.93842 4.08871 2.25119C3.92516 2.37008 3.76724 2.50029 3.61496 2.63616C3.46269 2.77203 3.44011 2.80034 3.35551 2.88526C3.27092 2.97018 3.10173 3.15136 2.9833 3.2929C2.91562 3.37216 2.85356 3.45141 2.79152 3.53633C2.72949 3.62126 2.66746 3.70052 2.61106 3.78544C2.55466 3.87036 2.49261 3.96092 2.44185 4.04584C2.39109 4.13076 2.34034 4.22136 2.28958 4.30628C1.99803 4.82862 1.78517 5.39144 1.65792 5.97639C1.65792 6.04999 1.62408 6.12923 1.60716 6.20283C1.53692 6.59141 1.50106 6.98548 1.5 7.38041C1.5 7.50496 1.5 7.62386 1.5 7.74841C1.5 7.87296 1.49999 7.95788 1.52819 8.06545C1.66355 9.20841 2.09809 10.295 2.7876 11.2146C3.47711 12.1343 4.39699 12.8542 5.45366 13.3012C6.51033 13.7481 7.66606 13.9061 8.80332 13.7591C9.94057 13.6121 11.0188 13.1654 11.9282 12.4643C12.0579 12.4134 12.1538 12.4644 12.2891 12.6002C12.8531 13.2003 13.9674 14.2507 14.5708 14.8281C14.6701 14.9308 14.8043 14.9919 14.9466 14.9993C15.0889 15.0066 15.2287 14.9596 15.3379 14.8678C15.4342 14.7754 15.4919 14.6496 15.4992 14.5161C15.5065 14.3826 15.463 14.2512 15.3773 14.1488ZM11.8267 11.2188C11.771 11.2522 11.7182 11.2901 11.6687 11.332C11.0591 11.8795 10.3341 12.2815 9.54789 12.5079C8.76168 12.7344 7.93463 12.7795 7.12861 12.6398C6.40523 12.528 5.71288 12.2666 5.09542 11.8722C4.47796 11.4777 3.94885 10.9588 3.54164 10.3483C3.13443 9.7378 2.85799 9.04909 2.72984 8.32575C2.60169 7.6024 2.62461 6.86021 2.79717 6.14623C2.97868 5.45722 3.2937 4.81087 3.7242 4.24415C4.15471 3.67742 4.69226 3.20144 5.30614 2.84338C5.92002 2.48532 6.59819 2.25222 7.30186 2.15741C8.00554 2.0626 8.72092 2.10794 9.40713 2.29082C10.0497 2.45552 10.6573 2.73557 11.2006 3.1174L11.4206 3.28157C11.5018 3.34264 11.579 3.40881 11.6518 3.4797C11.7082 3.52499 11.759 3.58162 11.8154 3.63257L11.9958 3.8194C12.927 4.835 13.4297 6.17346 13.3982 7.55339C13.3666 8.93331 12.8033 10.2472 11.8267 11.2188Z" fill="#FAFAFA" fill-opacity="0.3"/>
</svg>
