<svg width="15" height="18" viewBox="0 0 15 18" fill="none" xmlns="http://www.w3.org/2000/svg">
<g filter="url(#filter0_d_1311_6497)">
<path d="M4 9L7.64 4H11L7.36 9L11 14H7.64L4 9Z" fill="#C5D8EE"/>
</g>
<defs>
<filter id="filter0_d_1311_6497" x="0" y="0" width="15" height="18" filterUnits="userSpaceOnUse" color-interpolation-filters="sRGB">
<feFlood flood-opacity="0" result="BackgroundImageFix"/>
<feColorMatrix in="SourceAlpha" type="matrix" values="0 0 0 0 0 0 0 0 0 0 0 0 0 0 0 0 0 0 127 0" result="hardAlpha"/>
<feOffset/>
<feGaussianBlur stdDeviation="2"/>
<feComposite in2="hardAlpha" operator="out"/>
<feColorMatrix type="matrix" values="0 0 0 0 0.366485 0 0 0 0 0.619891 0 0 0 0 1 0 0 0 1 0"/>
<feBlend mode="normal" in2="BackgroundImageFix" result="effect1_dropShadow_1311_6497"/>
<feBlend mode="normal" in="SourceGraphic" in2="effect1_dropShadow_1311_6497" result="shape"/>
</filter>
</defs>
</svg>
