<svg width="17" height="16" viewBox="0 0 17 16" fill="none" xmlns="http://www.w3.org/2000/svg">
<path fill-rule="evenodd" clip-rule="evenodd" d="M8.5 2C7.94772 2 7.5 2.44772 7.5 3V7H3.5C2.94772 7 2.5 7.44771 2.5 8C2.5 8.55228 2.94771 9 3.5 9H7.5V13C7.5 13.5523 7.94772 14 8.5 14C9.05228 14 9.5 13.5523 9.5 13V9H13.5C14.0523 9 14.5 8.55229 14.5 8C14.5 7.44772 14.0523 7 13.5 7H9.5V3C9.5 2.44772 9.05228 2 8.5 2Z" fill="#C5D8EE"/>
</svg>
