<svg width="32" height="32" viewBox="0 0 32 32" fill="none" xmlns="http://www.w3.org/2000/svg">
<path d="M18.7447 13.6916L29.4988 2.18215L29.3856 2.02155C28.9254 2.02155 28.4514 2.06079 27.9912 2.01243C27.2981 1.93943 26.8259 2.19036 26.3537 2.70501C23.6486 5.64785 20.9031 8.55418 18.1768 11.4778C17.9927 11.6759 17.8583 11.9186 17.6558 12.2079C17.3383 11.81 17.1496 11.5846 16.972 11.3501C14.7768 8.44833 12.5751 5.55112 10.3984 2.63658C10.0725 2.20131 9.73842 2.00421 9.1742 2.01151C6.7259 2.04345 4.2776 2.02337 1.82837 2.02793C1.59919 2.02793 1.36817 2.06626 1 2.10002L12.5972 17.4438L1.01841 29.8156L1.12057 29.9753C1.58078 29.9753 2.05203 29.9315 2.50948 29.9853C3.24581 30.072 3.72627 29.769 4.21041 29.2452C7.1631 26.0469 10.1498 22.8787 13.1173 19.6922C13.3161 19.4787 13.4468 19.204 13.6539 18.891C14.0128 19.3427 14.2061 19.5718 14.381 19.8036C16.7906 22.9891 19.2067 26.1692 21.597 29.3694C21.9266 29.811 22.2717 29.9889 22.8267 29.9826C25.275 29.9552 27.7233 29.9725 30.1716 29.968C30.4008 29.968 30.6318 29.9324 31 29.9013L18.7447 13.6916ZM23.2805 28.028C23.0338 28.0152 22.7632 27.663 22.5764 27.4211C18.1148 21.5373 13.6603 15.6492 9.21286 9.75686C7.94269 8.07664 6.67344 6.39671 5.4051 4.71709C5.24863 4.50904 5.11057 4.2873 4.87495 3.94146C6.25097 3.94146 7.47972 3.90131 8.70111 3.97249C8.96895 3.988 9.25336 4.3676 9.46045 4.63588C13.7398 10.2794 18.0123 15.9278 22.2782 21.5811C23.7134 23.4791 25.1477 25.3774 26.5811 27.2761C26.7376 27.4832 26.8729 27.7049 27.1103 28.0563C25.7297 28.0563 24.5028 28.0909 23.2805 28.028Z" fill="url(#paint0_linear_1229_166)"/>
<defs>
<linearGradient id="paint0_linear_1229_166" x1="16" y1="2" x2="16" y2="30" gradientUnits="userSpaceOnUse">
<stop stop-color="white"/>
<stop offset="1" stop-color="#8887A2"/>
</linearGradient>
</defs>
</svg>
