<svg width="14" height="8" viewBox="0 0 14 8" fill="none" xmlns="http://www.w3.org/2000/svg">
<path opacity="0.3" d="M0 4L3.03333 0H5.83333L8.8 4L5.83333 8H3.03333L0 4Z" fill="#C5D8EE"/>
<path opacity="0.6" d="M14 4L10.9667 0H8.16667L11.2 4L8.16667 8H10.9667L14 4Z" fill="#C5D8EE"/>
</svg>
