<svg width="41" height="24" viewBox="0 0 41 24" fill="none" xmlns="http://www.w3.org/2000/svg">
<rect x="0.5" width="40" height="24" rx="4" fill="#F1F1F1"/>
<path fill-rule="evenodd" clip-rule="evenodd" d="M20.4998 16.5672C19.4407 17.461 18.0668 18.0006 16.5655 18.0006C13.2156 18.0006 10.5 15.3141 10.5 12.0003C10.5 8.68642 13.2156 6 16.5655 6C18.0668 6 19.4407 6.53957 20.4998 7.43336C21.559 6.53957 22.9329 6 24.4342 6C27.784 6 30.4996 8.68642 30.4996 12.0003C30.4996 15.3141 27.784 18.0006 24.4342 18.0006C22.9329 18.0006 21.559 17.461 20.4998 16.5672Z" fill="#ED0006"/>
<path fill-rule="evenodd" clip-rule="evenodd" d="M20.4961 16.5658C21.7993 15.4652 22.6256 13.8282 22.6256 12.0003C22.6256 10.1724 21.7993 8.53533 20.4961 7.43478C21.5555 6.54014 22.93 6 24.4321 6C27.782 6 30.4976 8.68642 30.4976 12.0003C30.4976 15.3141 27.782 18.0006 24.4321 18.0006C22.93 18.0006 21.5555 17.4604 20.4961 16.5658Z" fill="#F9A000"/>
<path fill-rule="evenodd" clip-rule="evenodd" d="M20.5042 16.5713C21.8084 15.4708 22.6353 13.8331 22.6353 12.0044C22.6353 10.1757 21.8084 8.53806 20.5042 7.4375C19.2 8.53806 18.373 10.1757 18.373 12.0044C18.373 13.8331 19.2 15.4708 20.5042 16.5713Z" fill="#FF5E00"/>
</svg>
